<svg width="24" height="25" viewBox="0 0 24 25" fill="none" xmlns="http://www.w3.org/2000/svg">
<path fill-rule="evenodd" clip-rule="evenodd" d="M12 3.9519C7.02944 3.9519 3 7.98134 3 12.9519C3 17.9225 7.02944 21.9519 12 21.9519C16.9706 21.9519 21 17.9225 21 12.9519C21 7.98134 16.9706 3.9519 12 3.9519ZM1 12.9519C1 6.87677 5.92487 1.9519 12 1.9519C18.0751 1.9519 23 6.87677 23 12.9519C23 19.027 18.0751 23.9519 12 23.9519C5.92487 23.9519 1 19.027 1 12.9519Z" fill="white"/>
<path fill-rule="evenodd" clip-rule="evenodd" d="M12.2581 8.97618C11.7926 8.89633 11.3138 8.98381 10.9066 9.22313C10.4994 9.46245 10.1901 9.83815 10.0333 10.2837C9.85006 10.8047 9.27914 11.0785 8.75815 10.8952C8.23716 10.7119 7.96339 10.141 8.14666 9.62002C8.46013 8.72891 9.07886 7.9775 9.89327 7.49887C10.7077 7.02023 11.6652 6.84527 12.5962 7.00497C13.5273 7.16467 14.3717 7.64872 14.9801 8.37139C15.5883 9.09392 15.9213 10.0083 15.92 10.9528C15.9195 12.4831 14.7849 13.4938 13.9747 14.0339C13.5391 14.3243 13.1105 14.5379 12.7949 14.6782C12.6356 14.749 12.5015 14.8027 12.4049 14.8395C12.3565 14.8579 12.3173 14.8722 12.2887 14.8824L12.254 14.8945L12.2429 14.8983L12.239 14.8996L12.2375 14.9001C12.2372 14.9002 12.2362 14.9005 11.92 13.9519L12.2362 14.9005C11.7123 15.0752 11.146 14.792 10.9713 14.2681C10.7968 13.7445 11.0794 13.1786 11.6027 13.0035L11.6014 13.004C11.6015 13.0039 11.6016 13.0039 11.6027 13.0035L11.6187 12.9979C11.6341 12.9925 11.6593 12.9833 11.6929 12.9705C11.7603 12.9448 11.8606 12.9048 11.9826 12.8506C12.2294 12.7408 12.5509 12.5794 12.8653 12.3698C13.5549 11.9101 13.92 11.421 13.92 10.9519L13.92 10.9504C13.9207 10.4781 13.7542 10.0207 13.45 9.65939C13.1459 9.29806 12.7236 9.05603 12.2581 8.97618Z" fill="white"/>
<path fill-rule="evenodd" clip-rule="evenodd" d="M11 17.9519C11 17.3996 11.4477 16.9519 12 16.9519H12.01C12.5623 16.9519 13.01 17.3996 13.01 17.9519C13.01 18.5042 12.5623 18.9519 12.01 18.9519H12C11.4477 18.9519 11 18.5042 11 17.9519Z" fill="white"/>
</svg>
