<svg width="24" height="25" viewBox="0 0 24 25" fill="none" xmlns="http://www.w3.org/2000/svg">
<path d="M22.4217 21.2769L18.203 11.0582C18.1251 10.8694 17.9929 10.7081 17.8232 10.5946C17.6535 10.4811 17.4539 10.4205 17.2498 10.4205C17.0456 10.4205 16.846 10.4811 16.6763 10.5946C16.5067 10.7081 16.3745 10.8694 16.2966 11.0582L12.0778 21.2769C12.0254 21.4022 11.9982 21.5367 11.9978 21.6725C11.9975 21.8084 12.024 21.943 12.0758 22.0685C12.1276 22.1941 12.2038 22.3082 12.2998 22.4043C12.3959 22.5003 12.51 22.5765 12.6356 22.6283C12.7611 22.6802 12.8957 22.7067 13.0316 22.7064C13.1674 22.706 13.3019 22.6789 13.4272 22.6264C13.5525 22.574 13.6662 22.4973 13.7618 22.4008C13.8574 22.3042 13.933 22.1898 13.9842 22.0639L14.8434 19.9832H19.6561L20.5153 22.0639C20.5932 22.2527 20.7254 22.4142 20.8951 22.5277C21.0649 22.6413 21.2645 22.7019 21.4688 22.7019C21.6382 22.7018 21.805 22.6599 21.9545 22.58C22.1039 22.5001 22.2313 22.3846 22.3255 22.2437C22.4197 22.1028 22.4777 21.9409 22.4944 21.7723C22.5111 21.6037 22.486 21.4335 22.4212 21.2769H22.4217ZM15.6952 17.9207L17.25 14.1542L18.8048 17.9207H15.6952ZM12.555 17.0263C12.7152 16.805 12.7811 16.5291 12.7381 16.2593C12.6951 15.9895 12.5468 15.7478 12.3258 15.5872C12.3164 15.5802 11.6227 15.0655 10.6153 13.9592C12.4739 11.443 13.5267 8.58034 13.9561 7.23315H15.4688C15.7423 7.23315 16.0046 7.12451 16.198 6.93111C16.3913 6.73771 16.5 6.47541 16.5 6.2019C16.5 5.9284 16.3913 5.6661 16.198 5.4727C16.0046 5.2793 15.7423 5.17065 15.4688 5.17065H10.0312V4.23315C10.0312 3.95965 9.9226 3.69735 9.7292 3.50395C9.53581 3.31055 9.2735 3.2019 9 3.2019C8.7265 3.2019 8.46419 3.31055 8.2708 3.50395C8.0774 3.69735 7.96875 3.95965 7.96875 4.23315V5.17065H2.53125C2.25775 5.17065 1.99544 5.2793 1.80205 5.4727C1.60865 5.6661 1.5 5.9284 1.5 6.2019C1.5 6.47541 1.60865 6.73771 1.80205 6.93111C1.99544 7.12451 2.25775 7.23315 2.53125 7.23315H11.7773C11.3311 8.49644 10.5094 10.491 9.25594 12.3125C7.78359 10.3588 7.23656 9.09456 7.23234 9.08425C7.12456 8.83515 6.92291 8.63859 6.67114 8.53719C6.41937 8.4358 6.13778 8.43775 5.88743 8.54263C5.63709 8.6475 5.43819 8.84684 5.33387 9.09741C5.22954 9.34798 5.22821 9.62958 5.33016 9.88112C5.35734 9.94581 6.01219 11.4857 7.80797 13.8153C7.85109 13.8711 7.89375 13.9255 7.93641 13.9799C6.09703 16.0588 4.29234 17.3483 3.53719 17.7646C3.29706 17.8955 3.1188 18.1165 3.04162 18.3789C2.96444 18.6413 2.99465 18.9237 3.12563 19.1638C3.2566 19.4039 3.47759 19.5822 3.74 19.6593C4.0024 19.7365 4.28472 19.7063 4.52484 19.5753C4.62609 19.52 6.80297 18.3149 9.28875 15.5633C10.3444 16.6921 11.07 17.2246 11.1136 17.2555C11.2233 17.3352 11.3476 17.3924 11.4794 17.424C11.6113 17.4556 11.748 17.4609 11.8819 17.4395C12.0158 17.4182 12.1442 17.3707 12.2597 17.2997C12.3751 17.2287 12.4755 17.1356 12.555 17.0258V17.0263Z" fill="white"/>
</svg>
