<svg width="25" height="24" viewBox="0 0 25 24" fill="none" xmlns="http://www.w3.org/2000/svg">
<path d="M19.9558 2.55301C19.9558 1.87591 20.1929 1.22654 20.6148 0.74776C21.0368 0.268977 21.6091 0 22.2058 0C22.8025 0 23.3748 0.268977 23.7968 0.74776C24.2188 1.22654 24.4558 1.87591 24.4558 2.55301L24.4558 21.2751C24.4558 21.9522 24.2188 22.6016 23.7968 23.0803C23.3748 23.5591 22.8025 23.8281 22.2058 23.8281C21.6091 23.8281 21.0368 23.5591 20.6148 23.0803C20.1929 22.6016 19.9558 21.9522 19.9558 21.2751L19.9558 2.55301ZM18.4558 3.78526C15.3553 5.40217 11.6473 6.30594 7.95581 6.60379L7.95581 17.2192C8.50067 17.2541 9.04479 17.3023 9.58781 17.3639C12.6673 17.7111 15.6448 18.5008 18.4558 20.019L18.4558 3.78526ZM6.45581 17.1307L6.45581 6.6957C5.43581 6.74165 4.35731 6.76888 3.44381 6.7859C2.64932 6.79839 1.89095 7.16449 1.33206 7.80533C0.773165 8.44618 0.458488 9.31047 0.455811 10.212L0.455811 13.6161C0.455811 15.4985 1.79981 17.0133 3.44681 17.0354C3.69482 17.0389 3.94283 17.0434 4.19081 17.049C4.94607 17.0661 5.70112 17.0934 6.45581 17.1307ZM8.54081 18.9706C8.96831 19.0063 9.39431 19.0506 9.81581 19.1033L10.1953 21.9797C10.2366 22.2259 10.2295 22.4793 10.1745 22.722C10.1195 22.9647 10.0179 23.1906 9.87705 23.3836C9.7362 23.5766 9.55953 23.7319 9.35966 23.8384C9.15979 23.945 8.94164 24.0002 8.72081 24H7.89881C7.60724 24 7.322 23.9035 7.07798 23.7225C6.83396 23.5414 6.64173 23.2836 6.52481 22.9805L4.55381 18.7595C5.40019 18.7835 6.24626 18.8198 7.09181 18.8685C7.58231 18.8974 8.06681 18.9314 8.54081 18.9706Z" fill="white" fill-opacity="0.8"/>
</svg>
