<svg width="24" height="25" viewBox="0 0 24 25" fill="none" xmlns="http://www.w3.org/2000/svg">
<path fill-rule="evenodd" clip-rule="evenodd" d="M12.0812 3.46095C12.2747 3.80433 12.2485 4.22936 12.0142 4.54633C11.16 5.70199 10.7489 7.12586 10.8558 8.55897C10.9627 9.99208 11.5804 11.3392 12.5965 12.3554C13.6127 13.3716 14.9599 13.9893 16.393 14.0962C17.8261 14.203 19.25 13.792 20.4056 12.9378L21 13.7419L21.9958 13.8339C21.821 15.7253 21.1112 17.5277 19.9494 19.0304C18.7876 20.533 17.2219 21.6737 15.4355 22.319C13.649 22.9643 11.7158 23.0874 9.86189 22.674C8.00802 22.2607 6.31022 21.3279 4.96714 19.9848C3.62407 18.6417 2.69127 16.9439 2.2779 15.0901C1.86453 13.2362 1.98769 11.3029 2.63296 9.51649C3.27823 7.73006 4.41893 6.16435 5.92157 5.00256C7.42422 3.84076 9.22667 3.13095 11.118 2.95616C11.5105 2.91989 11.8877 3.11756 12.0812 3.46095ZM19.561 15.6355C18.5078 16.0165 17.3782 16.1752 16.2442 16.0906C14.3334 15.9481 12.5372 15.1245 11.1823 13.7696C9.82742 12.4147 9.00382 10.6185 8.86132 8.7077C8.77676 7.57373 8.9354 6.4441 9.31641 5.39098C8.5388 5.67233 7.80562 6.07395 7.1449 6.58479C5.94278 7.51423 5.03023 8.7668 4.51401 10.1959C3.99779 11.6251 3.89927 13.1717 4.22996 14.6548C4.56066 16.1379 5.30689 17.4961 6.38136 18.5706C7.45582 19.6451 8.81406 20.3913 10.2972 20.722C11.7803 21.0527 13.3269 20.9542 14.756 20.4379C16.1851 19.9217 17.4377 19.0092 18.3672 17.807C18.878 17.1463 19.2796 16.4131 19.561 15.6355Z" fill="white"/>
</svg>
