<svg width="32" height="32" viewBox="0 0 32 32" fill="none" xmlns="http://www.w3.org/2000/svg">
<path d="M23.9997 2.66675H7.99967C6.53301 2.66675 5.33301 3.86675 5.33301 5.33341V26.6667C5.33301 28.1334 6.53301 29.3334 7.99967 29.3334H23.9997C25.4663 29.3334 26.6663 28.1334 26.6663 26.6667V5.33341C26.6663 3.86675 25.4663 2.66675 23.9997 2.66675ZM11.9997 5.33341H14.6663V12.0001L13.333 11.0001L11.9997 12.0001V5.33341ZM23.9997 26.6667H7.99967V5.33341H9.33301V17.3334L13.333 14.3334L17.333 17.3334V5.33341H23.9997V26.6667Z" fill="gray"/>
</svg>
